
                 Gregorian Easter Sundays in 1900-2199
               (c) www.merlyn.demon.co.uk  >= 2009-01-16

               http://www.merlyn.demon.co.uk/estr-tbl.txt
                http://www.merlyn.demon.co.uk/index.htm

                      By "Compressed Tables" in
               http://www.merlyn.demon.co.uk/estrdate.htm



                      Gregorian Easter Sundays

   +     0     1     2     3     4     5     6     7     8     9

 1900  Apr15 Apr07 Mar30 Apr12 Apr03 Apr23 Apr15 Mar31 Apr19 Apr11
 1910  Mar27 Apr16 Apr07 Mar23 Apr12 Apr04 Apr23 Apr08 Mar31 Apr20
 1920  Apr04 Mar27 Apr16 Apr01 Apr20 Apr12 Apr04 Apr17 Apr08 Mar31
 1930  Apr20 Apr05 Mar27 Apr16 Apr01 Apr21 Apr12 Mar28 Apr17 Apr09
 1940  Mar24 Apr13 Apr05 Apr25 Apr09 Apr01 Apr21 Apr06 Mar28 Apr17
 1950  Apr09 Mar25 Apr13 Apr05 Apr18 Apr10 Apr01 Apr21 Apr06 Mar29
 1960  Apr17 Apr02 Apr22 Apr14 Mar29 Apr18 Apr10 Mar26 Apr14 Apr06
 1970  Mar29 Apr11 Apr02 Apr22 Apr14 Mar30 Apr18 Apr10 Mar26 Apr15
 1980  Apr06 Apr19 Apr11 Apr03 Apr22 Apr07 Mar30 Apr19 Apr03 Mar26
 1990  Apr15 Mar31 Apr19 Apr11 Apr03 Apr16 Apr07 Mar30 Apr12 Apr04
 2000  Apr23 Apr15 Mar31 Apr20 Apr11 Mar27 Apr16 Apr08 Mar23 Apr12
 2010  Apr04 Apr24 Apr08 Mar31 Apr20 Apr05 Mar27 Apr16 Apr01 Apr21
 2020  Apr12 Apr04 Apr17 Apr09 Mar31 Apr20 Apr05 Mar28 Apr16 Apr01
 2030  Apr21 Apr13 Mar28 Apr17 Apr09 Mar25 Apr13 Apr05 Apr25 Apr10
 2040  Apr01 Apr21 Apr06 Mar29 Apr17 Apr09 Mar25 Apr14 Apr05 Apr18
 2050  Apr10 Apr02 Apr21 Apr06 Mar29 Apr18 Apr02 Apr22 Apr14 Mar30
 2060  Apr18 Apr10 Mar26 Apr15 Apr06 Mar29 Apr11 Apr03 Apr22 Apr14
 2070  Mar30 Apr19 Apr10 Mar26 Apr15 Apr07 Apr19 Apr11 Apr03 Apr23
 2080  Apr07 Mar30 Apr19 Apr04 Mar26 Apr15 Mar31 Apr20 Apr11 Apr03
 2090  Apr16 Apr08 Mar30 Apr12 Apr04 Apr24 Apr15 Mar31 Apr20 Apr12
 2100  Mar28 Apr17 Apr09 Mar25 Apr13 Apr05 Apr18 Apr10 Apr01 Apr21
 2110  Apr06 Mar29 Apr17 Apr02 Apr22 Apr14 Mar29 Apr18 Apr10 Mar26
 2120  Apr14 Apr06 Mar29 Apr11 Apr02 Apr22 Apr14 Mar30 Apr18 Apr10
 2130  Mar26 Apr15 Apr06 Apr19 Apr11 Apr03 Apr22 Apr07 Mar30 Apr19
 2140  Apr03 Mar26 Apr15 Mar31 Apr19 Apr11 Apr03 Apr16 Apr07 Mar30
 2150  Apr12 Apr04 Apr23 Apr15 Mar31 Apr20 Apr11 Mar27 Apr16 Apr08
 2160  Mar23 Apr12 Apr04 Apr24 Apr08 Mar31 Apr20 Apr05 Mar27 Apr16
 2170  Apr01 Apr21 Apr12 Apr04 Apr17 Apr09 Mar31 Apr20 Apr05 Mar28
 2180  Apr16 Apr01 Apr21 Apr13 Mar28 Apr17 Apr09 Mar25 Apr13 Apr05
 2190  Apr25 Apr10 Apr01 Apr21 Apr06 Mar29 Apr17 Apr09 Mar25 Apr14

 Date   Year ....
Mar 22
Mar 23  1913 2008 2160
Mar 24  1940
Mar 25  1951 2035 2046 2103 2187 2198
Mar 26  1967 1978 1989 2062 2073 2084 2119 2130 2141
Mar 27  1910 1921 1932 2005 2016 2157 2168
Mar 28  1937 1948 2027 2032 2100 2179 2184
Mar 29  1959 1964 1970 2043 2054 2065 2111 2116 2122 2195
Mar 30  1902 1975 1986 1997 2059 2070 2081 2092 2127 2138 2149
Mar 31  1907 1918 1929 1991 2002 2013 2024 2086 2097 2143 2154 2165 2176
Apr 01  1923 1934 1945 1956 2018 2029 2040 2108 2170 2181 2192
Apr 02  1961 1972 2051 2056 2113 2124
Apr 03  1904 1983 1988 1994 2067 2078 2089 2135 2140 2146
Apr 04  1915 1920 1926 1999 2010 2021 2083 2094 2151 2162 2173
Apr 05  1931 1942 1953 2015 2026 2037 2048 2105 2167 2178 2189
Apr 06  1947 1958 1969 1980 2042 2053 2064 2110 2121 2132 2194
Apr 07  1901 1912 1985 1996 2075 2080 2137 2148
Apr 08  1917 1928 2007 2012 2091 2159 2164
Apr 09  1939 1944 1950 2023 2034 2045 2102 2175 2186 2197
Apr 10  1955 1966 1977 2039 2050 2061 2072 2107 2118 2129 2191
Apr 11  1909 1971 1982 1993 2004 2066 2077 2088 2123 2134 2145 2156
Apr 12  1903 1914 1925 1936 1998 2009 2020 2093 2099 2150 2161 2172
Apr 13  1941 1952 2031 2036 2104 2183 2188
Apr 14  1963 1968 1974 2047 2058 2069 2115 2120 2126 2199
Apr 15  1900 1906 1979 1990 2001 2063 2074 2085 2096 2131 2142 2153
Apr 16  1911 1922 1933 1995 2006 2017 2028 2090 2147 2158 2169 2180
Apr 17  1927 1938 1949 1960 2022 2033 2044 2101 2112 2174 2185 2196
Apr 18  1954 1965 1976 2049 2055 2060 2106 2117 2128
Apr 19  1908 1981 1987 1992 2071 2076 2082 2133 2139 2144
Apr 20  1919 1924 1930 2003 2014 2025 2087 2098 2155 2166 2177
Apr 21  1935 1946 1957 2019 2030 2041 2052 2109 2171 2182 2193
Apr 22  1962 1973 1984 2057 2068 2114 2125 2136
Apr 23  1905 1916 2000 2079 2152
Apr 24  2011 2095 2163
Apr 25  1943 2038 2190

                               ----
